\select@language {czech}
\contentsline {section}{\numberline {1}Za\v c\'atky}{2}{section.1}
\contentsline {subsection}{\numberline {1.1}Uk\'azka Unixov\'eho k\'odu}{3}{subsection.1.1}
\contentsline {section}{\numberline {2}Vyhodnocen\IeC {\'\i }}{4}{section.2}
