\relax 
\providecommand\hyper@newdestlabel[2]{}
\catcode `"\active 
\catcode `-\active 
\providecommand\HyperFirstAtBeginDocument{\AtBeginDocument}
\HyperFirstAtBeginDocument{\ifx\hyper@anchor\@undefined
\global\let\oldcontentsline\contentsline
\gdef\contentsline#1#2#3#4{\oldcontentsline{#1}{#2}{#3}}
\global\let\oldnewlabel\newlabel
\gdef\newlabel#1#2{\newlabelxx{#1}#2}
\gdef\newlabelxx#1#2#3#4#5#6{\oldnewlabel{#1}{{#2}{#3}}}
\AtEndDocument{\ifx\hyper@anchor\@undefined
\let\contentsline\oldcontentsline
\let\newlabel\oldnewlabel
\fi}
\fi}
\global\let\hyper@last\relax 
\gdef\HyperFirstAtBeginDocument#1{#1}
\providecommand\HyField@AuxAddToFields[1]{}
\providecommand\HyField@AuxAddToCoFields[2]{}
\ifx\qr@savematrix\@undefined\def\qr@savematrix{\begingroup\let\do\@makeother\dospecials\catcode`\{=1\catcode`\}=2\relax \qr@savematrix@int}\def\qr@savematrix@int#1#2#3#4{\endgroup}\fi
\select@language{czech}
\@writefile{toc}{\select@language{czech}}
\@writefile{lof}{\select@language{czech}}
\@writefile{lot}{\select@language{czech}}
\@writefile{toc}{\contentsline {section}{\numberline {1}Za\v c\'atky}{2}{section.1}}
\citation{linuxkernel}
\@writefile{toc}{\contentsline {subsection}{\numberline {1.1}Uk\'azka Unixov\'eho k\'odu}{3}{subsection.1.1}}
\@writefile{lol}{\contentsline {lstlisting}{code/Source.cpp}{3}{lstlisting.-1}}
\@writefile{toc}{\contentsline {section}{\numberline {2}Vyhodnocen\IeC {\'\i }}{4}{section.2}}
\@writefile{lot}{\contentsline {table}{\numberline {1}{\ignorespaces Tabulka nam\v e\v ren\'ych hodnot}}{4}{table.1}}
\bibcite{stack}{1}
\bibcite{prezentace}{2}
